[
    {
        "productId": 1,
        "expectedDelivery": "2020-07-10"
    },
    {
        "productId": 2,
        "expectedDelivery": "2020-07-15"
    },
    {
        "productId": 3,
        "expectedDelivery": "2020-07-20"
    },
    {
        "productId": 4,
        "expectedDelivery": "2020-07-25"
    },
    {
        "productId": 5,
        "expectedDelivery": "2020-07-30"
    }
]